dump.vcd
$date
   Tue Mar 31 10:02:33 2026
$end

$version
  2025.2
  $dumpfile ("dump.vcd") 
$end

$timescale
  1ps
$end

$scope module tb_top $end
$var reg 1 ! clk $end
$var reg 1 " en $end
$var reg 1 # rst $end
$var reg 1 $ start $end
$var reg 1 % end_of_str $end
$var reg 8 & char_in [7:0] $end
$var wire 6 ' match_bus [5:0] $end
$scope module uut $end
$var wire 1 ( clk $end
$var wire 1 ) en $end
$var wire 1 * rst $end
$var wire 1 + start $end
$var wire 1 , end_of_str $end
$var wire 8 - char_in [7:0] $end
$var wire 6 ' match_bus [5:0] $end
$scope module inst_0 $end
$var wire 1 ( clk $end
$var wire 1 ) en $end
$var wire 1 * rst $end
$var wire 1 + start $end
$var wire 1 , end_of_str $end
$var wire 8 - char_in [7:0] $end
$var reg 1 . match $end
$var reg 3 / state_reg [2:0] $end
$var wire 3 0 next_state [2:0] $end
$upscope $end
$scope module inst_1 $end
$var wire 1 ( clk $end
$var wire 1 ) en $end
$var wire 1 * rst $end
$var wire 1 + start $end
$var wire 1 , end_of_str $end
$var wire 8 - char_in [7:0] $end
$var reg 1 1 match $end
$var reg 4 2 state_reg [3:0] $end
$var wire 4 3 next_state [3:0] $end
$upscope $end
$scope module inst_2 $end
$var wire 1 ( clk $end
$var wire 1 ) en $end
$var wire 1 * rst $end
$var wire 1 + start $end
$var wire 1 , end_of_str $end
$var wire 8 - char_in [7:0] $end
$var reg 1 4 match $end
$var reg 4 5 state_reg [3:0] $end
$var wire 4 6 next_state [3:0] $end
$upscope $end
$scope module inst_3 $end
$var wire 1 ( clk $end
$var wire 1 ) en $end
$var wire 1 * rst $end
$var wire 1 + start $end
$var wire 1 , end_of_str $end
$var wire 8 - char_in [7:0] $end
$var reg 1 7 match $end
$var reg 4 8 state_reg [3:0] $end
$var wire 4 9 next_state [3:0] $end
$upscope $end
$scope module inst_4 $end
$var wire 1 ( clk $end
$var wire 1 ) en $end
$var wire 1 * rst $end
$var wire 1 + start $end
$var wire 1 , end_of_str $end
$var wire 8 - char_in [7:0] $end
$var reg 1 : match $end
$var reg 4 ; state_reg [3:0] $end
$var wire 4 < next_state [3:0] $end
$upscope $end
$scope module inst_5 $end
$var wire 1 ( clk $end
$var wire 1 ) en $end
$var wire 1 * rst $end
$var wire 1 + start $end
$var wire 1 , end_of_str $end
$var wire 8 - char_in [7:0] $end
$var reg 1 = match $end
$var reg 6 > state_reg [5:0] $end
$var wire 6 ? next_state [5:0] $end
$upscope $end
$upscope $end
$upscope $end
$enddefinitions $end

#0
$dumpvars
0!
1"
1#
0$
0%
b0 &
bx '
0(
1)
1*
0+
0,
b0 -
x.
bx /
b0 0
x1
bx 2
b0 3
x4
bx 5
b0 6
x7
bx 8
b0 9
x:
bx ;
b0 <
x=
bx >
b0 ?
$end

#5000
1!
b0 '
1(
0.
b1 /
01
b1 2
04
b1 5
07
b1 8
0:
b1 ;
0=
b1 >

#10000
0!
0(

#15000
1!
1(

#20000
0!
0#
0(
0*

#25000
1!
1(
b0 /
b0 2
b0 5
b0 8
b0 ;
b0 >

#30000
0!
1$
0(
1+

#35000
1!
1(
b1 /
b1 2
b1 5
b1 8
b1 ;
b1 >

#40000
0!
0$
b1100001 &
0(
0+
b1100001 -
b10 0
b10 3
b10 6
b10 9
b10 <
b10 ?

#45000
1!
1(
b10 /
b0 0
b10 2
b0 3
b10 5
b10 8
b100 9
b10 ;
b0 <
b10 >

#50000
0!
1%
0(
1,

#55000
1!
b101 '
1(
1.
b0 /
b0 2
14
b100 8
b0 9
b0 ;

#60000
0!
0%
0(
0,

#65000
1!
b0 '
1(
0.
04
b0 8

#70000
0!
1$
0(
1+

#75000
1!
1(
b1 /
b10 0
b1 2
b10 3
b1 5
b1 8
b10 9
b1 ;
b10 <
b1 >

#80000
0!
0$
b1100010 &
0(
0+
b1100010 -
b100 0
b0 3
b100 6
b0 9
b0 <
b100 ?

#85000
1!
1(
b100 /
b0 0
b0 2
b100 5
b0 8
b0 ;
b100 >

#90000
0!
1%
0(
1,

#95000
1!
b101 '
1(
1.
b0 /
14

#100000
0!
0%
0(
0,

#105000
1!
b0 '
1(
0.
04

#110000
0!
1$
0(
1+

#115000
1!
1(
b1 /
b100 0
b1 2
b1 5
b1 8
b1 ;
b1 >

#120000
0!
0$
b1100011 &
0(
0+
b1100011 -
b0 0
b0 6
b1000 ?

#125000
1!
1(
b0 /
b0 2
b0 5
b0 8
b0 ;
b1000 >
b0 ?

#130000
0!
1%
0(
1,

#135000
1!
1(
b0 >

#140000
0!
0%
0(
0,

#145000
1!
1(

#150000
0!
1$
0(
1+

#155000
1!
1(
b1 /
b1 2
b1 5
b1 8
b1 ;
b1 >
b1000 ?

#160000
0!
0$
b1100001 &
0(
0+
b1100001 -
b10 0
b10 3
b10 6
b10 9
b10 <
b10 ?

#165000
1!
1(
b10 /
b0 0
b10 2
b0 3
b10 5
b10 8
b100 9
b10 ;
b0 <
b10 >

#170000
0!
0(

#175000
1!
1(
b0 /
b0 2
b100 8
b0 9
b0 ;

#180000
0!
1%
0(
1,

#185000
1!
b100 '
1(
14
b0 8

#190000
0!
0%
0(
0,

#195000
1!
b0 '
1(
04

#200000
0!
1$
0(
1+

#205000
1!
1(
b1 /
b10 0
b1 2
b10 3
b1 5
b1 8
b10 9
b1 ;
b10 <
b1 >

#210000
0!
0$
0(
0+

#215000
1!
1(
b10 /
b0 0
b10 2
b0 3
b10 5
b10 8
b100 9
b10 ;
b0 <
b10 >

#220000
0!
b1100010 &
0(
b1100010 -
b100 3
b100 6
b100 <
b100 ?

#225000
1!
1(
b0 /
b100 2
b100 5
b100 8
b1000 9
b100 ;
b0 <
b100 >

#230000
0!
1%
0(
1,

#235000
1!
b100 '
1(
14
b1000 8
b0 9
b0 ;

#240000
0!
0%
0(
0,

#245000
1!
b0 '
1(
04
b0 8

#250000
0!
1$
0(
1+

#255000
1!
1(
b1 /
b100 0
b1 2
b0 3
b1 5
b1 8
b1 ;
b1 >

#260000
0!
0$
b1100001 &
0(
0+
b1100001 -
b10 0
b10 3
b10 6
b10 9
b10 <
b10 ?

#265000
1!
1(
b10 /
b0 0
b10 2
b0 3
b10 5
b10 8
b100 9
b10 ;
b0 <
b10 >

#270000
0!
b1100011 &
0(
b1100011 -
b1000 3
b1000 6
b1000 ?

#275000
1!
1(
b0 /
b1000 2
b0 3
b1000 5
b0 6
b100 8
b0 9
b0 ;
b1000 >
b0 ?

#280000
0!
1%
0(
1,

#285000
1!
b110 '
1(
11
b0 2
14
b0 5
b0 8
b0 >

#290000
0!
0%
0(
0,

#295000
1!
b0 '
1(
01
04

#300000
0!
1$
0(
1+

#305000
1!
1(
b1 /
b1 2
b1 5
b1 8
b1 ;
b1 >
b1000 ?

#310000
0!
0$
b1100001 &
0(
0+
b1100001 -
b10 0
b10 3
b10 6
b10 9
b10 <
b10 ?

#315000
1!
1(
b10 /
b0 0
b10 2
b0 3
b10 5
b10 8
b100 9
b10 ;
b0 <
b10 >

#320000
0!
b1100010 &
0(
b1100010 -
b100 3
b100 6
b100 <
b100 ?

#325000
1!
1(
b0 /
b100 2
b100 5
b100 8
b1000 9
b100 ;
b0 <
b100 >

#330000
0!
b1100011 &
0(
b1100011 -
b1000 3
b1000 6
b0 9
b1000 <
b1000 ?

#335000
1!
1(
b1000 2
b0 3
b1000 5
b0 6
b0 8
b1000 ;
b0 <
b1000 >
b0 ?

#340000
0!
1%
0(
1,

#345000
1!
b10110 '
1(
11
b0 2
14
b0 5
1:
b0 ;
b0 >

#350000
0!
0%
0(
0,

#355000
1!
b0 '
1(
01
04
0:

#360000
0!
1$
0(
1+

#365000
1!
1(
b1 /
b1 2
b1 5
b1 8
b1 ;
b1 >
b1000 ?

#370000
0!
0$
b1100001 &
0(
0+
b1100001 -
b10 0
b10 3
b10 6
b10 9
b10 <
b10 ?

#375000
1!
1(
b10 /
b0 0
b10 2
b0 3
b10 5
b10 8
b100 9
b10 ;
b0 <
b10 >

#380000
0!
b1100010 &
0(
b1100010 -
b100 3
b100 6
b100 <
b100 ?

#385000
1!
1(
b0 /
b100 2
b100 5
b100 8
b1000 9
b100 ;
b0 <
b100 >

#390000
0!
0(

#395000
1!
1(
b1000 8
b0 9
b0 ;

#400000
0!
b1100011 &
0(
b1100011 -
b1000 3
b1000 6
b1000 ?

#405000
1!
1(
b1000 2
b0 3
b1000 5
b0 6
b0 8
b1000 >
b0 ?

#410000
0!
1%
0(
1,

#415000
1!
b110 '
1(
11
b0 2
14
b0 5
b0 >

#420000
0!
0%
0(
0,

#425000
1!
b0 '
1(
01
04

#430000
0!
1$
0(
1+

#435000
1!
1(
b1 /
b1 2
b1 5
b1 8
b1 ;
b1 >
b1000 ?

#440000
0!
0$
b1100001 &
0(
0+
b1100001 -
b10 0
b10 3
b10 6
b10 9
b10 <
b10 ?

#445000
1!
1(
b10 /
b0 0
b10 2
b0 3
b10 5
b10 8
b100 9
b10 ;
b0 <
b10 >

#450000
0!
b1100010 &
0(
b1100010 -
b100 3
b100 6
b100 <
b100 ?

#455000
1!
1(
b0 /
b100 2
b100 5
b100 8
b1000 9
b100 ;
b0 <
b100 >

#460000
0!
0(

#465000
1!
1(
b1000 8
b0 9
b0 ;

#470000
0!
0(

#475000
1!
1(
b0 8

#480000
0!
b1100011 &
0(
b1100011 -
b1000 3
b1000 6
b1000 ?

#485000
1!
1(
b1000 2
b0 3
b1000 5
b0 6
b1000 >
b0 ?

#490000
0!
1%
0(
1,

#495000
1!
b110 '
1(
11
b0 2
14
b0 5
b0 >

#500000
0!
0%
0(
0,

#505000
1!
b0 '
1(
01
04

#510000
0!
1$
0(
1+

