dump.vcd
$date
   Tue Mar 31 10:02:33 2026
$end

$version
  2025.2
  $dumpfile ("dump.vcd") 
$end

$timescale
  1ps
$end

$scope module tb_top $end
$var reg 1 ! clk $end
$var reg 1 " en $end
$var reg 1 # rst $end
$var reg 1 $ start $end
$var reg 1 % end_of_str $end
$var reg 8 & char_in [7:0] $end
$var wire 6 ' match_bus [5:0] $end
$scope module uut $end
$var wire 1 ( clk $end
$var wire 1 ) en $end
$var wire 1 * rst $end
$var wire 1 + start $end
$var wire 1 , end_of_str $end
$var wire 8 - char_in [7:0] $end
$var wire 6 ' match_bus [5:0] $end
$scope module inst_0 $end
$var wire 1 ( clk $end
$var wire 1 ) en $end
$var wire 1 * rst $end
$var wire 1 + start $end
$var wire 1 , end_of_str $end
$var wire 8 - char_in [7:0] $end
$var reg 1 . match $end
$var reg 3 / state_reg [2:0] $end
$var wire 3 0 next_state [2:0] $end
$upscope $end
$scope module inst_1 $end
$var wire 1 ( clk $end
$var wire 1 ) en $end
$var wire 1 * rst $end
$var wire 1 + start $end
$var wire 1 , end_of_str $end
$var wire 8 - char_in [7:0] $end
$var reg 1 1 match $end
$var reg 4 2 state_reg [3:0] $end
$var wire 4 3 next_state [3:0] $end
$upscope $end
$scope module inst_2 $end
$var wire 1 ( clk $end
$var wire 1 ) en $end
$var wire 1 * rst $end
$var wire 1 + start $end
$var wire 1 , end_of_str $end
$var wire 8 - char_in [7:0] $end
$var reg 1 4 match $end
$var reg 4 5 state_reg [3:0] $end
$var wire 4 6 next_state [3:0] $end
$upscope $end
$scope module inst_3 $end
$var wire 1 ( clk $end
$var wire 1 ) en $end
$var wire 1 * rst $end
$var wire 1 + start $end
$var wire 1 , end_of_str $end
$var wire 8 - char_in [7:0] $end
$var reg 1 7 match $end
$var reg 4 8 state_reg [3:0] $end
$var wire 4 9 next_state [3:0] $end
$upscope $end
$scope module inst_4 $end
$var wire 1 ( clk $end
$var wire 1 ) en $end
$var wire 1 * rst $end
$var wire 1 + start $end
$var wire 1 , end_of_str $end
$var wire 8 - char_in [7:0] $end
$var reg 1 : match $end
$var reg 4 ; state_reg [3:0] $end
$var wire 4 < next_state [3:0] $end
$upscope $end
$scope module inst_5 $end
$var wire 1 ( clk $end
$var wire 1 ) en $end
$var wire 1 * rst $end
$var wire 1 + start $end
$var wire 1 , end_of_str $end
$var wire 8 - char_in [7:0] $end
$var reg 1 = match $end
$var reg 6 > state_reg [5:0] $end
$var wire 6 ? next_state [5:0] $end
$upscope $end
$upscope $end
$upscope $end
$enddefinitions $end

#0
$dumpvars
0!
1"
1#
0$
0%
b0 &
bx '
0(
1)
1*
0+
0,
b0 -
x.
bx /
b0 0
x1
bx 2
b0 3
x4
bx 5
b0 6
x7
bx 8
b0 9
x:
bx ;
b0 <
x=
bx >
b0 ?
$end

#5000
1!
b0 '
1(
0.
b1 /
01
b1 2
04
b1 5
07
b1 8
0:
b1 ;
0=
b1 >

#10000
0!
0(

#15000
1!
1(

#20000
0!
0#
0(
0*

#25000
1!
1(
b0 /
b0 2
b0 5
b0 8
b0 ;
b0 >

#30000
0!
1$
0(
1+

#35000
1!
1(
b1 /
b1 2
b1 5
b1 8
b1 ;
b1 >

#40000
0!
0$
b1100001 &
0(
0+
b1100001 -
b10 0
b10 3
b10 6
b10 9
b10 <
b10 ?

#45000
1!
1(
b10 /
b0 0
b10 2
b0 3
b10 5
b10 8
b100 9
b10 ;
b0 <
b10 >

#50000
0!
1%
0(
1,

#55000
1!
b101 '
1(
1.
b0 /
b0 2
14
b100 8
b0 9
b0 ;

#60000
0!
0%
0(
0,

#65000
1!
b0 '
1(
0.
04
b0 8

#70000
0!
1$
0(
1+

#75000
1!
1(
b1 /
b10 0
b1 2
b10 3
b1 5
b1 8
b10 9
b1 ;
b10 <
b1 >

#80000
0!
0$
b1100010 &
0(
0+
b1100010 -
b100 0
b0 3
b100 6
b0 9
b0 <
b100 ?

#85000
1!
1(
b100 /
b0 0
b0 2
b100 5
b0 8
b0 ;
b100 >

#90000
0!
1%
0(
1,

#95000
1!
b101 '
1(
1.
b0 /
14

#100000
0!
0%
0(
0,

#105000
1!
b0 '
1(
0.
04

#110000
0!
1$
0(
1+

#115000
1!
1(
b1 /
b100 0
b1 2
b1 5
b1 8
b1 ;
b1 >

#120000
0!
0$
b1100011 &
0(
0+
b1100011 -
b0 0
b0 6
b1000 ?

#125000
1!
1(
b0 /
b0 2
b0 5
b0 8
b0 ;
b1000 >
b0 ?

#130000
0!
1%
0(
1,

#135000
1!
1(
b0 >

#140000
0!
0%
0(
0,

#145000
1!
1(

#150000
0!
1$
0(
1+

#155000
1!
1(
b1 /
b1 2
b1 5
b1 8
b1 ;
b1 >
b1000 ?

#160000
0!
0$
b1100001 &
0(
0+
b1100001 -
b10 0
b10 3
b10 6
b10 9
b10 <
b10 ?

#165000
1!
1(
b10 /
b0 0
b10 2
b0 3
b10 5
b10 8
b100 9
b10 ;
b0 <
b10 >

#170000
0!
0(

#175000
1!
1(
b0 /
b0 2
b100 8
b0 9
b0 ;

#180000
0!
1%
0(
1,

#185000
1!
b100 '
1(
14
b0 8

#190000
0!
0%
0(
0,

#195000
1!
b0 '
1(
04

#200000
0!
1$
0(
1+

#205000
1!
1(
b1 /
b10 0
b1 2
b10 3
b1 5
b1 8
b10 9
b1 ;
b10 <
b1 >

#210000
0!
0$
0(
0+

#215000
1!
1(
b10 /
b0 0
b10 2
b0 3
b10 5
b10 8
b100 9
b10 ;
b0 <
b10 >

#220000
0!
b1100010 &
0(
b1100010 -
b100 3
b100 6
b100 <
b100 ?

#225000
1!
1(
b0 /
b100 2
b100 5
b100 8
b1000 9
b100 ;
b0 <
b100 >

#230000
0!
1%
0(
1,

#235000
1!
b100 '
1(
14
b1000 8
b0 9
b0 ;

#240000
0!
0%
0(
0,

#245000
1!
b0 '
1(
04
b0 8

#250000
0!
1$
0(
1+

#255000
1!
1(
b1 /
b100 0
b1 2
b0 3
b1 5
b1 8
b1 ;
b1 >

#260000
0!
0$
b1100001 &
0(
0+
b1100001 -
b10 0
b10 3
b10 6
b10 9
b10 <
b10 ?

#265000
1!
1(
b10 /
b0 0
b10 2
b0 3
b10 5
b10 8
b100 9
b10 ;
b0 <
b10 >

#270000
0!
b1100011 &
0(
b1100011 -
b1000 3
b1000 6
b1000 ?

#275000
1!
1(
b0 /
b1000 2
b0 3
b1000 5
b0 6
b100 8
b0 9
b0 ;
b1000 >
b0 ?

#280000
0!
1%
0(
1,

#285000
1!
b110 '
1(
11
b0 2
14
b0 5
b0 8
b0 >

#290000
0!
0%
0(
0,

#295000
1!
b0 '
1(
01
04

#300000
0!
1$
0(
1+

#305000
1!
1(
b1 /
b1 2
b1 5
b1 8
b1 ;
b1 >
b1000 ?

#310000
0!
0$
b1100001 &
0(
0+
b1100001 -
b10 0
b10 3
b10 6
b10 9
b10 <
b10 ?

#315000
1!
1(
b10 /
b0 0
b10 2
b0 3
b10 5
b10 8
b100 9
b10 ;
b0 <
b10 >

#320000
0!
b1100010 &
0(
b1100010 -
b100 3
b100 6
b100 <
b100 ?

#325000
1!
1(
b0 /
b100 2
b100 5
b100 8
b1000 9
b100 ;
b0 <
b100 >

#330000
0!
b1100011 &
0(
b1100011 -
b1000 3
b1000 6
b0 9
b1000 <
b1000 ?

#335000
1!
1(
b1000 2
b0 3
b1000 5
b0 6
b0 8
b1000 ;
b0 <
b1000 >
b0 ?

#340000
0!
1%
0(
1,

#345000
1!
b10110 '
1(
11
b0 2
14
b0 5
1:
b0 ;
b0 >

#350000
0!
0%
0(
0,

#355000
1!
b0 '
1(
01
04
0:

#360000
0!
1$
0(
1+

#365000
1!
1(
b1 /
b1 2
b1 5
b1 8
b1 ;
b1 >
b1000 ?

#370000
0!
0$
b1100001 &
0(
0+
b1100001 -
b10 0
b10 3
b10 6
b10 9
b10 <
b10 ?

#375000
1!
1(
b10 /
b0 0
b10 2
b0 3
b10 5
b10 8
b100 9
b10 ;
b0 <
b10 >

#380000
0!
b1100010 &
0(
b1100010 -
b100 3
b100 6
b100 <
b100 ?

#385000
1!
1(
b0 /
b100 2
b100 5
b100 8
b1000 9
b100 ;
b0 <
b100 >

#390000
0!
0(

#395000
1!
1(
b1000 8
b0 9
b0 ;

#400000
0!
b1100011 &
0(
b1100011 -
b1000 3
b1000 6
b1000 ?

#405000
1!
1(
b1000 2
b0 3
b1000 5
b0 6
b0 8
b1000 >
b0 ?

#410000
0!
1%
0(
1,

#415000
1!
b110 '
1(
11
b0 2
14
b0 5
b0 >

#420000
0!
0%
0(
0,

#425000
1!
b0 '
1(
01
04

#430000
0!
1$
0(
1+

#435000
1!
1(
b1 /
b1 2
b1 5
b1 8
b1 ;
b1 >
b1000 ?

#440000
0!
0$
b1100001 &
0(
0+
b1100001 -
b10 0
b10 3
b10 6
b10 9
b10 <
b10 ?

#445000
1!
1(
b10 /
b0 0
b10 2
b0 3
b10 5
b10 8
b100 9
b10 ;
b0 <
b10 >

#450000
0!
b1100010 &
0(
b1100010 -
b100 3
b100 6
b100 <
b100 ?

#455000
1!
1(
b0 /
b100 2
b100 5
b100 8
b1000 9
b100 ;
b0 <
b100 >

#460000
0!
0(

#465000
1!
1(
b1000 8
b0 9
b0 ;

#470000
0!
0(

#475000
1!
1(
b0 8

#480000
0!
b1100011 &
0(
b1100011 -
b1000 3
b1000 6
b1000 ?

#485000
1!
1(
b1000 2
b0 3
b1000 5
b0 6
b1000 >
b0 ?

#490000
0!
1%
0(
1,

#495000
1!
b110 '
1(
11
b0 2
14
b0 5
b0 >

#500000
0!
0%
0(
0,

#505000
1!
b0 '
1(
01
04

#510000
0!
1$
0(
1+

#515000
1!
1(
b1 /
b1 2
b1 5
b1 8
b1 ;
b1 >
b1000 ?

#520000
0!
0$
b1100001 &
0(
0+
b1100001 -
b10 0
b10 3
b10 6
b10 9
b10 <
b10 ?

#525000
1!
1(
b10 /
b0 0
b10 2
b0 3
b10 5
b10 8
b100 9
b10 ;
b0 <
b10 >

#530000
0!
0(

#535000
1!
1(
b0 /
b0 2
b100 8
b0 9
b0 ;

#540000
0!
0(

#545000
1!
1(
b0 8

#550000
0!
0(

#555000
1!
1(

#560000
0!
1%
0(
1,

#565000
1!
b100 '
1(
14

#570000
0!
0%
0(
0,

#575000
1!
b0 '
1(
04

#580000
0!
1$
0(
1+

#585000
1!
1(
b1 /
b10 0
b1 2
b10 3
b1 5
b1 8
b10 9
b1 ;
b10 <
b1 >

#590000
0!
0$
b1100010 &
0(
0+
b1100010 -
b100 0
b0 3
b100 6
b0 9
b0 <
b100 ?

#595000
1!
1(
b100 /
b0 0
b0 2
b100 5
b0 8
b0 ;
b100 >

#600000
0!
0(

#605000
1!
1(
b0 /

#610000
0!
0(

#615000
1!
1(

#620000
0!
0(

#625000
1!
1(

#630000
0!
1%
0(
1,

#635000
1!
b100 '
1(
14

#640000
0!
0%
0(
0,

#645000
1!
b0 '
1(
04

#650000
0!
1$
0(
1+

#655000
1!
1(
b1 /
b100 0
b1 2
b1 5
b1 8
b1 ;
b1 >

#660000
0!
0$
b1111000 &
0(
0+
b1111000 -
b0 0
b0 6
b0 ?

#665000
1!
1(
b0 /
b0 2
b0 5
b0 8
b0 ;
b0 >

#670000
0!
1%
0(
1,

#675000
1!
1(

#680000
0!
0%
0(
0,

#685000
1!
1(

#690000
0!
1$
0(
1+

#695000
1!
1(
b1 /
b1 2
b1 5
b1 8
b1 ;
b1 >

#700000
0!
0$
b1100001 &
0(
0+
b1100001 -
b10 0
b10 3
b10 6
b10 9
b10 <
b10 ?

#705000
1!
1(
b10 /
b0 0
b10 2
b0 3
b10 5
b10 8
b100 9
b10 ;
b0 <
b10 >

#710000
0!
b1111000 &
0(
b1111000 -
b0 6
b0 ?

#715000
1!
1(
b0 /
b0 2
b0 5
b100 8
b0 9
b0 ;
b0 >

#720000
0!
b1100010 &
0(
b1100010 -
b1000 9

#725000
1!
1(
b1000 8
b0 9

#730000
0!
1%
0(
1,

#735000
1!
b1000 '
1(
17
b0 8

#740000
0!
0%
0(
0,

#745000
1!
b0 '
1(
07

#750000
0!
1$
0(
1+

#755000
1!
1(
b1 /
b100 0
b1 2
b1 5
b100 6
b1 8
b1 ;
b1 >
b100 ?

#760000
0!
0$
b1100001 &
0(
0+
b1100001 -
b10 0
b10 3
b10 6
b10 9
b10 <
b10 ?

#765000
1!
1(
b10 /
b0 0
b10 2
b0 3
b10 5
b10 8
b100 9
b10 ;
b0 <
b10 >

#770000
0!
b1111001 &
0(
b1111001 -
b0 6
b0 ?

#775000
1!
1(
b0 /
b0 2
b0 5
b100 8
b0 9
b0 ;
b0 >

#780000
0!
b1100010 &
0(
b1100010 -
b1000 9

#785000
1!
1(
b1000 8
b0 9

#790000
0!
1%
0(
1,

#795000
1!
b1000 '
1(
17
b0 8

#800000
0!
0%
0(
0,

#805000
1!
b0 '
1(
07

#810000
0!
1$
0(
1+

#815000
1!
1(
b1 /
b100 0
b1 2
b1 5
b100 6
b1 8
b1 ;
b1 >
b100 ?

#820000
0!
0$
b101000 &
0(
0+
b101000 -
b0 0
b0 6
b0 ?

#825000
1!
1(
b0 /
b0 2
b0 5
b0 8
b0 ;
b0 >

#830000
0!
b1100001 &
0(
b1100001 -

#835000
1!
1(

#840000
0!
b1111100 &
0(
b1111100 -

#845000
1!
1(

#850000
0!
b1100010 &
0(
b1100010 -

#855000
1!
1(

#860000
0!
b101001 &
0(
b101001 -

#865000
1!
1(

#870000
0!
1%
0(
1,

#875000
1!
1(

#880000
0!
0%
0(
0,

#885000
1!
1(

#890000
0!
1$
0(
1+

#895000
1!
1(
b1 /
b1 2
b1 5
b1 8
b1 ;
b1 >

#900000
0!
0$
b1100001 &
0(
0+
b1100001 -
b10 0
b10 3
b10 6
b10 9
b10 <
b10 ?

#905000
1!
1(
b10 /
b0 0
b10 2
b0 3
b10 5
b10 8
b100 9
b10 ;
b0 <
b10 >

#910000
0!
b1100010 &
0(
b1100010 -
b100 3
b100 6
b100 <
b100 ?

#915000
1!
1(
b0 /
b100 2
b100 5
b100 8
b1000 9
b100 ;
b0 <
b100 >

#920000
0!
b1100011 &
0(
b1100011 -
b1000 3
b1000 6
b0 9
b1000 <
b1000 ?

#925000
1!
1(
b1000 2
b0 3
b1000 5
b0 6
b0 8
b1000 ;
b0 <
b1000 >
b0 ?

#930000
0!
1%
0(
1,

#935000
1!
b10110 '
1(
11
b0 2
14
b0 5
1:
b0 ;
b0 >

#940000
0!
0%
0(
0,

#945000
1!
b0 '
1(
01
04
0:

#950000
0!
1$
0(
1+

#955000
1!
1(
b1 /
b1 2
b1 5
b1 8
b1 ;
b1 >
b1000 ?

#960000
0!
0$
b1100001 &
0(
0+
b1100001 -
b10 0
b10 3
b10 6
b10 9
b10 <
b10 ?

#965000
1!
1(
b10 /
b0 0
b10 2
b0 3
b10 5
b10 8
b100 9
b10 ;
b0 <
b10 >

#970000
0!
b1100010 &
0(
b1100010 -
b100 3
b100 6
b100 <
b100 ?

#975000
1!
1(
b0 /
b100 2
b100 5
b100 8
b1000 9
b100 ;
b0 <
b100 >

#980000
0!
b1100011 &
0(
b1100011 -
b1000 3
b1000 6
b0 9
b1000 <
b1000 ?

#985000
1!
1(
b1000 2
b0 3
b1000 5
b0 6
b0 8
b1000 ;
b0 <
b1000 >
b0 ?

#990000
0!
b1100100 &
0(
b1100100 -
b10000 ?

#995000
1!
1(
b0 2
b0 5
b0 ;
b10000 >

#1000000
0!
1%
0(
1,

#1005000
1!
b100000 '
1(
1=

#1010000
0!
0%
0(
0,

#1015000
1!
b0 '
1(
0=

#1020000
0!
1$
0(
1+

#1025000
1!
1(
b1 /
b1 2
b1 5
b1 8
b1 ;
b1 >
b0 ?

#1030000
0!
0$
b1100001 &
0(
0+
b1100001 -
b10 0
b10 3
b10 6
b10 9
b10 <
b10 ?

#1035000
1!
1(
b10 /
b0 0
b10 2
b0 3
b10 5
b10 8
b100 9
b10 ;
b0 <
b10 >

#1040000
0!
b1100010 &
0(
b1100010 -
b100 3
b100 6
b100 <
b100 ?

#1045000
1!
1(
b0 /
b100 2
b100 5
b100 8
b1000 9
b100 ;
b0 <
b100 >

#1050000
0!
b1100011 &
0(
b1100011 -
b1000 3
b1000 6
b0 9
b1000 <
b1000 ?

#1055000
1!
1(
b1000 2
b0 3
b1000 5
b0 6
b0 8
b1000 ;
b0 <
b1000 >
b0 ?

#1060000
0!
b1100101 &
0(
b1100101 -
b100000 ?

#1065000
1!
1(
b0 2
b0 5
b0 ;
b100000 >

#1070000
0!
1%
0(
1,

#1075000
1!
b100000 '
1(
1=

#1080000
0!
0%
0(
0,

#1085000
1!
b0 '
1(
0=

